<?xml version="1.0" encoding="UTF-8" standalone="no"?>
<!-- Created with Inkscape (http://www.inkscape.org/) -->

<svg
   xmlns:dc="http://purl.org/dc/elements/1.1/"
   xmlns:cc="http://creativecommons.org/ns#"
   xmlns:rdf="http://www.w3.org/1999/02/22-rdf-syntax-ns#"
   xmlns:svg="http://www.w3.org/2000/svg"
   xmlns="http://www.w3.org/2000/svg"
   xmlns:sodipodi="http://sodipodi.sourceforge.net/DTD/sodipodi-0.dtd"
   xmlns:inkscape="http://www.inkscape.org/namespaces/inkscape"
   height="300"
   width="500"
   id="svg2"
   sodipodi:version="0.32"
   inkscape:version="0.92.5 (2060ec1f9f, 2020-04-08)"
   version="1.0"
   sodipodi:docname="PumpOuterON.svg"
   inkscape:output_extension="org.inkscape.output.svg.inkscape"
   inkscape:export-filename="/home/ksawery/eclipse-workspace/Woda/Images/PumpOuterON.png"
   inkscape:export-xdpi="200.85109"
   inkscape:export-ydpi="200.85109">
  <sodipodi:namedview
     id="base"
     pagecolor="#c8c8c8"
     bordercolor="#666666"
     borderopacity="1.0"
     inkscape:pageopacity="0"
     inkscape:pageshadow="2"
     inkscape:cx="-4.6294233"
     inkscape:cy="267.48126"
     inkscape:zoom="14.666666"
     inkscape:document-units="px"
     inkscape:current-layer="layer1"
     width="500px"
     height="300px"
     units="mm"
     showborder="true"
     inkscape:showpageshadow="false"
     gridanglex="30px"
     gridanglez="30px"
     grid_units="px"
     showguides="true"
     inkscape:window-width="1920"
     inkscape:window-height="1016"
     inkscape:window-x="1920"
     inkscape:window-y="0"
     showgrid="true"
     inkscape:object-points="false"
     inkscape:object-bbox="false"
     inkscape:object-nodes="false"
     objecttolerance="50"
     gridtolerance="10000"
     guidetolerance="50"
     inkscape:object-paths="false"
     inkscape:grid-points="true"
     inkscape:guide-points="false"
     inkscape:grid-bbox="false"
     inkscape:guide-bbox="true"
     inkscape:window-maximized="1">
    <inkscape:grid
       id="GridFromPre046Settings"
       type="xygrid"
       originx="0"
       originy="0"
       spacingx="1"
       spacingy="1"
       color="#3f3fff"
       empcolor="#3f3fff"
       opacity="0.15"
       empopacity="0.38"
       empspacing="5" />
  </sodipodi:namedview>
  <defs
     id="defs4">
    <marker
       style="overflow:visible"
       orient="auto"
       id="Arrow2Lstart"
       refY="0"
       inkscape:stockid="Arrow2Lstart"
       refX="0">
      <path
         style="font-size:12px;fill-rule:evenodd;stroke-width:0.625;stroke-linejoin:round"
         transform="matrix(1.1,0,0,1.1,1.1,0)"
         d="M 8.7185878,4.0337352 L -2.2072895,0.016013256 L 8.7185884,-4.0017078 C 6.97309,-1.6296469 6.9831476,1.6157441 8.7185878,4.0337352 z "
         id="path3412" />
    </marker>
    <marker
       style="overflow:visible"
       orient="auto"
       id="SquareS"
       refY="0"
       inkscape:stockid="SquareS"
       refX="0">
      <path
         style="fill-rule:evenodd;stroke:#000000;stroke-width:1pt;marker-start:none"
         transform="scale(0.2,0.2)"
         d="M -5,-5 L -5,5 L 5,5 L 5,-5 L -5,-5 z "
         id="path7534" />
    </marker>
    <marker
       style="overflow:visible"
       orient="auto"
       id="SquareM"
       refY="0"
       inkscape:stockid="SquareM"
       refX="0">
      <path
         style="fill-rule:evenodd;stroke:#000000;stroke-width:1pt;marker-start:none"
         transform="scale(0.4,0.4)"
         d="M -5,-5 L -5,5 L 5,5 L 5,-5 L -5,-5 z "
         id="path7531" />
    </marker>
    <marker
       style="overflow:visible"
       orient="auto"
       id="DiamondM"
       refY="0"
       inkscape:stockid="DiamondM"
       refX="0">
      <path
         style="fill-rule:evenodd;stroke:#000000;stroke-width:1pt;marker-start:none"
         transform="scale(0.4,0.4)"
         d="M 0,-7.0710768 L -7.0710894,0 L 0,7.0710589 L 7.0710462,0 L 0,-7.0710768 z "
         id="path7540" />
    </marker>
    <marker
       style="overflow:visible"
       orient="auto"
       id="TriangleInM"
       refY="0"
       inkscape:stockid="TriangleInM"
       refX="0">
      <path
         style="fill-rule:evenodd;stroke:#000000;stroke-width:1pt;marker-start:none"
         transform="scale(-0.4,-0.4)"
         d="M 5.77,0 L -2.88,5 L -2.88,-5 L 5.77,0 z "
         id="path7549" />
    </marker>
    <marker
       style="overflow:visible"
       orient="auto"
       id="TriangleInL"
       refY="0"
       inkscape:stockid="TriangleInL"
       refX="0">
      <path
         style="fill-rule:evenodd;stroke:#000000;stroke-width:1pt;marker-start:none"
         transform="scale(-0.8,-0.8)"
         d="M 5.77,0 L -2.88,5 L -2.88,-5 L 5.77,0 z "
         id="path7546" />
    </marker>
    <marker
       style="overflow:visible"
       orient="auto"
       id="DiamondS"
       refY="0"
       inkscape:stockid="DiamondS"
       refX="0">
      <path
         style="fill-rule:evenodd;stroke:#000000;stroke-width:1pt;marker-start:none"
         transform="scale(0.2,0.2)"
         d="M 0,-7.0710768 L -7.0710894,0 L 0,7.0710589 L 7.0710462,0 L 0,-7.0710768 z "
         id="path7543" />
    </marker>
    <marker
       style="overflow:visible"
       orient="auto"
       id="Arrow2Lend"
       refY="0"
       inkscape:stockid="Arrow2Lend"
       refX="0">
      <path
         style="font-size:12px;fill-rule:evenodd;stroke-width:0.625;stroke-linejoin:round"
         transform="matrix(-1.1,0,0,-1.1,-1.1,0)"
         d="M 8.7185878,4.0337352 L -2.2072895,0.016013256 L 8.7185884,-4.0017078 C 6.97309,-1.6296469 6.9831476,1.6157441 8.7185878,4.0337352 z "
         id="path4317" />
    </marker>
    <marker
       style="overflow:visible"
       orient="auto"
       id="Arrow1Lend"
       refY="0"
       inkscape:stockid="Arrow1Lend"
       refX="0">
      <path
         style="fill-rule:evenodd;stroke:#000000;stroke-width:1pt;marker-start:none"
         transform="matrix(-0.8,0,0,-0.8,-10,0)"
         d="M 0,0 L 5,-5 L -12.5,0 L 5,5 L 0,0 z "
         id="path4299" />
    </marker>
    <marker
       style="overflow:visible"
       orient="auto"
       id="Arrow2Sstart"
       refY="0"
       inkscape:stockid="Arrow2Sstart"
       refX="0">
      <path
         style="font-size:12px;fill-rule:evenodd;stroke-width:0.625;stroke-linejoin:round"
         transform="matrix(0.3,0,0,0.3,-0.69,0)"
         d="M 8.7185878,4.0337352 L -2.2072895,0.016013256 L 8.7185884,-4.0017078 C 6.97309,-1.6296469 6.9831476,1.6157441 8.7185878,4.0337352 z "
         id="path4326" />
    </marker>
    <marker
       style="overflow:visible"
       orient="auto"
       id="Dot_l"
       refY="0"
       inkscape:stockid="Dot_l"
       refX="0">
      <path
         style="fill-rule:evenodd;stroke:#000000;stroke-width:1pt;marker-start:none;marker-end:none"
         transform="matrix(0.8,0,0,0.8,5.92,0.8)"
         d="M -2.5,-1 C -2.5,1.76 -4.74,4 -7.5,4 C -10.26,4 -12.5,1.76 -12.5,-1 C -12.5,-3.76 -10.26,-6 -7.5,-6 C -4.74,-6 -2.5,-3.76 -2.5,-1 z "
         id="path5224" />
    </marker>
    <marker
       style="overflow:visible"
       orient="auto"
       id="Arrow1Lstart"
       refY="0"
       inkscape:stockid="Arrow1Lstart"
       refX="0">
      <path
         style="fill-rule:evenodd;stroke:#000000;stroke-width:1pt;marker-start:none"
         transform="matrix(0.8,0,0,0.8,10,0)"
         d="M 0,0 L 5,-5 L -12.5,0 L 5,5 L 0,0 z "
         id="path5162" />
    </marker>
    <marker
       style="overflow:visible"
       orient="auto"
       id="Arrow1Send"
       refY="0"
       inkscape:stockid="Arrow1Send"
       refX="0">
      <path
         style="fill-rule:evenodd;stroke:#000000;stroke-width:1pt;marker-start:none"
         transform="matrix(-0.2,0,0,-0.2,-1.2,0)"
         d="M 0,0 L 5,-5 L -12.5,0 L 5,5 L 0,0 z "
         id="path7890" />
    </marker>
    <marker
       style="overflow:visible"
       orient="auto"
       id="Arrow1Mend"
       refY="0"
       inkscape:stockid="Arrow1Mend"
       refX="0">
      <path
         style="fill-rule:evenodd;stroke:#000000;stroke-width:1pt;marker-start:none"
         transform="matrix(-0.4,0,0,-0.4,-4,0)"
         d="M 0,0 L 5,-5 L -12.5,0 L 5,5 L 0,0 z "
         id="path7884" />
    </marker>
    <marker
       style="overflow:visible"
       orient="auto"
       id="Arrow1Mstart"
       refY="0"
       inkscape:stockid="Arrow1Mstart"
       refX="0">
      <path
         style="fill-rule:evenodd;stroke:#000000;stroke-width:1pt;marker-start:none"
         transform="matrix(0.4,0,0,0.4,4,0)"
         d="M 0,0 L 5,-5 L -12.5,0 L 5,5 L 0,0 z "
         id="path7881" />
    </marker>
    <marker
       style="overflow:visible"
       orient="auto"
       id="Dot_s"
       refY="0"
       inkscape:stockid="Dot_s"
       refX="0">
      <path
         style="fill-rule:evenodd;stroke:#000000;stroke-width:1pt;marker-start:none;marker-end:none"
         transform="matrix(0.2,0,0,0.2,1.48,0.2)"
         d="M -2.5,-1 C -2.5,1.76 -4.74,4 -7.5,4 C -10.26,4 -12.5,1.76 -12.5,-1 C -12.5,-3.76 -10.26,-6 -7.5,-6 C -4.74,-6 -2.5,-3.76 -2.5,-1 z "
         id="path7943" />
    </marker>
    <marker
       style="overflow:visible"
       orient="auto"
       id="Arrow2Send"
       refY="0"
       inkscape:stockid="Arrow2Send"
       refX="0">
      <path
         style="font-size:12px;fill-rule:evenodd;stroke-width:0.625;stroke-linejoin:round"
         transform="matrix(-0.3,0,0,-0.3,0.69,0)"
         d="M 8.7185878,4.0337352 L -2.2072895,0.016013256 L 8.7185884,-4.0017078 C 6.97309,-1.6296469 6.9831476,1.6157441 8.7185878,4.0337352 z "
         id="path5133" />
    </marker>
    <marker
       style="overflow:visible"
       orient="auto"
       id="Dot_m"
       refY="0"
       inkscape:stockid="Dot_m"
       refX="0">
      <path
         style="fill-rule:evenodd;stroke:#000000;stroke-width:1pt;marker-start:none;marker-end:none"
         transform="matrix(0.4,0,0,0.4,2.96,0.4)"
         d="M -2.5,-1 C -2.5,1.76 -4.74,4 -7.5,4 C -10.26,4 -12.5,1.76 -12.5,-1 C -12.5,-3.76 -10.26,-6 -7.5,-6 C -4.74,-6 -2.5,-3.76 -2.5,-1 z "
         id="path5165" />
    </marker>
    <marker
       style="overflow:visible"
       orient="auto"
       id="Arrow2Mend"
       refY="0"
       inkscape:stockid="Arrow2Mend"
       refX="0">
      <path
         style="font-size:12px;fill-rule:evenodd;stroke-width:0.625;stroke-linejoin:round"
         transform="scale(-0.6,-0.6)"
         d="M 8.7185878,4.0337352 L -2.2072895,0.016013256 L 8.7185884,-4.0017078 C 6.97309,-1.6296469 6.9831476,1.6157441 8.7185878,4.0337352 z "
         id="path5127" />
    </marker>
    <marker
       style="overflow:visible"
       orient="auto"
       id="Arrow2Mstart"
       refY="0"
       inkscape:stockid="Arrow2Mstart"
       refX="0">
      <path
         style="font-size:12px;fill-rule:evenodd;stroke-width:0.625;stroke-linejoin:round"
         transform="scale(0.6,0.6)"
         d="M 8.7185878,4.0337352 L -2.2072895,0.016013256 L 8.7185884,-4.0017078 C 6.97309,-1.6296469 6.9831476,1.6157441 8.7185878,4.0337352 z "
         id="path5124" />
    </marker>
    <clipPath
       clipPathUnits="userSpaceOnUse"
       id="clipPath3947">
      <rect
         id="rect3949"
         width="80.000031"
         height="90.727242"
         x="129.86844"
         y="29.96319"
         style="stroke-width:0.5409885" />
    </clipPath>
    <clipPath
       clipPathUnits="userSpaceOnUse"
       id="clipPath4032">
      <rect
         id="rect4034"
         width="25"
         height="100"
         x="43.050259"
         y="59.508644" />
    </clipPath>
  </defs>
  <metadata
     id="metadata7">
    <rdf:RDF>
      <cc:Work
         rdf:about="">
        <dc:format>image/svg+xml</dc:format>
        <dc:type
           rdf:resource="http://purl.org/dc/dcmitype/StillImage" />
        <dc:title />
      </cc:Work>
    </rdf:RDF>
  </metadata>
  <g
     inkscape:label="Warstwa 1"
     id="layer1"
     transform="translate(-18.05026,-29.508645)"
     inkscape:groupmode="layer">
    <path
       style="fill:none;stroke-width:1;stroke-miterlimit:2;stroke-dasharray:none"
       id="path6288"
       sodipodi:cx="88.625"
       sodipodi:cy="63.779514"
       sodipodi:type="arc"
       d="M 89.5 63.779514 A 0.875 0 0 1 1  87.75,63.779514 A 0.875 0 0 1 1  89.5 63.779514 z"
       sodipodi:rx="0.875"
       sodipodi:ry="0" />
    <path
       style="fill:none;stroke-width:1;stroke-miterlimit:2;stroke-dasharray:none"
       id="path6290"
       sodipodi:cx="89.125"
       sodipodi:cy="63.779514"
       sodipodi:type="arc"
       d="M 90 63.779514 A 0.875 0 0 1 1  88.25,63.779514 A 0.875 0 0 1 1  90 63.779514 z"
       sodipodi:rx="0.875"
       sodipodi:ry="0" />
    <path
       style="fill:none;stroke-width:1;stroke-miterlimit:2;stroke-dasharray:none"
       id="path6292"
       sodipodi:cx="90.625"
       sodipodi:cy="63.779514"
       sodipodi:type="arc"
       d="M 91.5 63.779514 A 0.875 0 0 1 1  89.75,63.779514 A 0.875 0 0 1 1  91.5 63.779514 z"
       sodipodi:rx="0.875"
       sodipodi:ry="0" />
    <path
       style="fill:none;stroke-width:1;stroke-miterlimit:2;stroke-dasharray:none"
       id="path6294"
       sodipodi:cx="92.5"
       sodipodi:cy="63.779514"
       sodipodi:type="arc"
       d="M 94.5 63.779514 A 2 0 0 1 1  90.5,63.779514 A 2 0 0 1 1  94.5 63.779514 z"
       sodipodi:rx="2"
       sodipodi:ry="0" />
    <path
       style="fill:none;stroke-width:1;stroke-miterlimit:2;stroke-dasharray:none"
       id="path6296"
       sodipodi:cx="102.5"
       sodipodi:cy="63.779514"
       sodipodi:type="arc"
       d="M 103 63.779514 A 0.5 0 0 1 1  102,63.779514 A 0.5 0 0 1 1  103 63.779514 z"
       sodipodi:rx="0.5"
       sodipodi:ry="0" />
    <path
       style="fill:none;fill-opacity:1;stroke-width:1;stroke-miterlimit:4;stroke-dasharray:4, 4;stroke-dashoffset:0"
       id="path4261"
       sodipodi:cx="70.866142"
       sodipodi:cy="86.81102"
       sodipodi:type="arc"
       d="M 70.866142,86.81102 A 0,8.8582678 0 0 1 70.866142,87.238321 L 70.866142,86.81102 z"
       sodipodi:start="0"
       sodipodi:end="0.048256299"
       sodipodi:rx="0"
       sodipodi:ry="8.8582678" />
    <path
       style="fill:none;fill-opacity:1;stroke-width:1;stroke-miterlimit:4;stroke-dasharray:4, 4;stroke-dashoffset:0"
       id="path4265"
       sodipodi:cx="88.58268"
       sodipodi:cy="92.125984"
       sodipodi:type="arc"
       d="M 88.58268,92.125984 A 0,7.0866141 0 0 1 88.58268,92.467825 L 88.58268,92.125984 z"
       sodipodi:start="0"
       sodipodi:end="0.048256299"
       sodipodi:rx="0"
       sodipodi:ry="7.0866141" />
    <g
       id="g3411"
       transform="matrix(-1,0,0,1,257.7799,74.855055)" />
    <g
       id="g3415"
       transform="matrix(-1,0,0,1,257.7799,74.855055)" />
    <g
       id="g3419"
       transform="matrix(-1,0,0,1,257.7799,74.855055)" />
    <g
       id="g3423"
       transform="matrix(-1,0,0,1,257.7799,74.855055)" />
    <g
       id="g3491"
       transform="matrix(-1,0,0,1,124.39475,17.526006)" />
    <g
       id="g3495"
       transform="matrix(-1,0,0,1,124.39475,17.526006)">
      <g
         id="g8305" />
    </g>
    <g
       id="g3499"
       transform="matrix(-1,0,0,1,124.39475,17.526006)" />
    <g
       id="g3503"
       transform="matrix(-1,0,0,1,124.39475,17.526006)" />
    <g
       id="g3614" />
    <g
       id="g3519"
       style="fill:none;fill-opacity:1;stroke:#323232;stroke-width:2;stroke-miterlimit:4;stroke-dasharray:none;stroke-opacity:1"
       transform="matrix(0,1,-1,0,767.9659,-65.167372)" />
    <g
       id="g8367">
      <g
         transform="matrix(0,1,-1,0,767.9659,-65.167372)"
         style="fill:none;fill-opacity:1;stroke:#323232;stroke-width:2;stroke-miterlimit:4;stroke-dasharray:none;stroke-opacity:1"
         id="g3523">
        <g
           id="g8377" />
      </g>
    </g>
    <g
       id="g3527"
       style="fill:none;fill-opacity:1;stroke:#323232;stroke-width:2;stroke-miterlimit:4;stroke-dasharray:none;stroke-opacity:1"
       transform="matrix(0,1,-1,0,767.9659,-65.167372)">
      <g
         id="g8385" />
    </g>
    <g
       id="g3537"
       style="fill:none;fill-opacity:1;stroke:#323232;stroke-width:2;stroke-miterlimit:4;stroke-dasharray:none;stroke-opacity:1"
       transform="matrix(0,-1,-1,0,994.21472,220.94405)" />
    <g
       id="g3541"
       style="fill:none;fill-opacity:1;stroke:#323232;stroke-width:2;stroke-miterlimit:4;stroke-dasharray:none;stroke-opacity:1"
       transform="matrix(0,-1,-1,0,994.21472,220.94405)">
      <g
         id="g8417" />
    </g>
    <g
       id="g3545"
       style="fill:none;fill-opacity:1;stroke:#323232;stroke-width:2;stroke-miterlimit:4;stroke-dasharray:none;stroke-opacity:1"
       transform="matrix(0,-1,-1,0,994.21472,220.94405)" />
    <g
       id="g3549"
       style="fill:none;fill-opacity:1;stroke:#323232;stroke-width:2;stroke-miterlimit:4;stroke-dasharray:none;stroke-opacity:1"
       transform="matrix(0,-1,-1,0,994.21472,220.94405)" />
    <g
       id="g3931"
       transform="matrix(-1,0,0,0.3306468,144.49575,21.043758)" />
    <g
       id="g3935"
       transform="matrix(-1,0,0,0.323439,144.3029,25.736308)" />
    <g
       id="g3939"
       transform="matrix(-1,0,0,0.8366758,144.49575,-66.732588)">
      <g
         id="g8233" />
    </g>
    <g
       id="g3943"
       transform="matrix(-1,0,0,0.9005921,144.49575,-78.480043)">
      <g
         id="g8241" />
    </g>
    <g
       id="g3955"
       transform="matrix(-1,0,0,0.3306468,144.57068,5.0079378)">
      <g
         id="g8249" />
    </g>
    <g
       id="g4041"
       transform="matrix(0,-1,-1,0,861.82346,64.662289)">
      <g
         id="g8425">
        <g
           id="g8433" />
      </g>
      <g
         id="g8409">
        <g
           id="g8441" />
      </g>
    </g>
    <g
       id="g4047"
       transform="matrix(1.2469397,0,0,1,732.36874,12.63434)">
      <g
         id="g8449" />
      <g
         id="g8457" />
    </g>
    <g
       id="g4053"
       transform="matrix(0,-1,1.1801999,0,-183.27352,148.87995)">
      <g
         id="g8297">
        <g
           id="g8321" />
      </g>
      <g
         id="g8313">
        <g
           id="g8329" />
      </g>
    </g>
    <g
       id="g3368"
       transform="translate(-25.636365,93.81818)" />
    <g
       id="g3376"
       transform="translate(-25.636365,93.81818)" />
    <g
       id="g7053">
      <g
         transform="matrix(1,0,0,0.9005921,32.4654,-85.819933)"
         id="g4023">
        <g
           id="g8140" />
      </g>
      <g
         id="g8183" />
    </g>
    <g
       id="g3276"
       inkscape:export-filename="c:\tmp_fltk\wymiennik\svg\plewaoffobwoff.png"
       inkscape:export-xdpi="90"
       inkscape:export-ydpi="90"
       style="fill:#008fdc;fill-opacity:1;stroke-width:1.20000005;stroke-miterlimit:4;stroke-dasharray:none"
       transform="matrix(-1,0,0,1,79.14393,12.545455)">
      <path
         sodipodi:nodetypes="ccs"
         id="path3351"
         d="m 36.016169,34.355241 12.130514,0.02704 0.04821,13.029951"
         style="fill:#008fdc;fill-opacity:1;fill-rule:evenodd;stroke:#323232;stroke-width:1.20000005;stroke-linecap:butt;stroke-linejoin:round;stroke-miterlimit:4;stroke-dasharray:none;stroke-opacity:1"
         inkscape:connector-curvature="0" />
      <path
         sodipodi:nodetypes="cccc"
         id="path3353"
         d="m 43.05026,56.50865 5,5 h -24 l 5.27793,-5.08981"
         style="fill:#008fdc;fill-opacity:1;fill-rule:evenodd;stroke:#323232;stroke-width:1.5;stroke-linecap:butt;stroke-linejoin:round;stroke-miterlimit:4;stroke-dasharray:none;stroke-opacity:1"
         inkscape:connector-curvature="0" />
      <path
         id="path3355"
         d="m 34.05026,34.50865 -5,2 -3,3 -2,5 v 4 l 2,5 3,3 5,2 h 4 l 5,-2 3,-3 2,-5 v -4 l -2,-5 -3,-3 -5,-2 z"
         style="fill:#008fdc;fill-opacity:1;fill-rule:evenodd;stroke:#323232;stroke-width:1.5;stroke-linecap:butt;stroke-linejoin:round;stroke-miterlimit:4;stroke-dasharray:none;stroke-opacity:1"
         sodipodi:nodetypes="ccccccccccccccccc"
         inkscape:connector-curvature="0" />
      <path
         id="path3357"
         d="m 24.339531,43.97832 h 10 v 5 h -10 z"
         style="fill:#008fdc;fill-opacity:1;fill-rule:evenodd;stroke:#323232;stroke-width:1.20000005;stroke-linecap:butt;stroke-linejoin:round;stroke-miterlimit:4;stroke-dasharray:none;stroke-opacity:1"
         inkscape:connector-curvature="0" />
    </g>
    <ellipse
       ry="0"
       rx="0.875"
       cy="67.052246"
       cx="127.5341"
       style="fill:none;stroke-width:1;stroke-miterlimit:2;stroke-dasharray:none"
       id="path6288-3" />
    <ellipse
       ry="0"
       rx="0.875"
       cy="67.052246"
       cx="128.0341"
       style="fill:none;stroke-width:1;stroke-miterlimit:2;stroke-dasharray:none"
       id="path6290-6" />
    <ellipse
       ry="0"
       rx="0.875"
       cy="67.052246"
       cx="129.5341"
       style="fill:none;stroke-width:1;stroke-miterlimit:2;stroke-dasharray:none"
       id="path6292-7" />
    <ellipse
       ry="0"
       rx="2"
       cy="67.052246"
       cx="131.4091"
       style="fill:none;stroke-width:1;stroke-miterlimit:2;stroke-dasharray:none"
       id="path6294-5" />
    <ellipse
       ry="0"
       rx="0.5"
       cy="67.052246"
       cx="141.4091"
       style="fill:none;stroke-width:1;stroke-miterlimit:2;stroke-dasharray:none"
       id="path6296-3" />
    <path
       style="fill:none;fill-opacity:1;stroke-width:1;stroke-miterlimit:4;stroke-dasharray:4, 4;stroke-dashoffset:0"
       id="path4261-5"
       sodipodi:cx="109.77523"
       sodipodi:cy="90.083748"
       sodipodi:type="arc"
       sodipodi:start="0"
       sodipodi:end="0.048256299"
       sodipodi:rx="0"
       sodipodi:ry="8.8582678" />
    <path
       style="fill:none;fill-opacity:1;stroke-width:1;stroke-miterlimit:4;stroke-dasharray:4, 4;stroke-dashoffset:0"
       id="path4265-6"
       sodipodi:cx="127.49177"
       sodipodi:cy="95.398727"
       sodipodi:type="arc"
       sodipodi:start="0"
       sodipodi:end="0.048256299"
       sodipodi:rx="0"
       sodipodi:ry="7.0866141" />
    <g
       id="g3411-1"
       transform="matrix(-1,0,0,1,296.689,78.127787)" />
    <g
       id="g3415-2"
       transform="matrix(-1,0,0,1,296.689,78.127787)" />
    <g
       id="g3419-7"
       transform="matrix(-1,0,0,1,296.689,78.127787)" />
    <g
       id="g3423-0"
       transform="matrix(-1,0,0,1,296.689,78.127787)" />
    <g
       id="g3491-9"
       transform="matrix(-1,0,0,1,163.30385,20.798738)" />
    <g
       id="g3495-3"
       transform="matrix(-1,0,0,1,163.30385,20.798738)">
      <g
         id="g8305-6" />
    </g>
    <g
       id="g3499-0"
       transform="matrix(-1,0,0,1,163.30385,20.798738)" />
    <g
       id="g3503-6"
       transform="matrix(-1,0,0,1,163.30385,20.798738)" />
    <g
       transform="translate(38.909099,3.2727318)"
       id="g3614-2" />
    <g
       id="g3519-6"
       style="fill:none;fill-opacity:1;stroke:#323232;stroke-width:2;stroke-miterlimit:4;stroke-dasharray:none;stroke-opacity:1"
       transform="rotate(90,434.38482,372.49017)" />
    <g
       transform="translate(38.909099,3.2727318)"
       id="g8367-1">
      <g
         transform="rotate(90,416.56664,351.39926)"
         style="fill:none;fill-opacity:1;stroke:#323232;stroke-width:2;stroke-miterlimit:4;stroke-dasharray:none;stroke-opacity:1"
         id="g3523-8">
        <g
           id="g8377-7" />
      </g>
    </g>
    <g
       id="g3527-9"
       style="fill:none;fill-opacity:1;stroke:#323232;stroke-width:2;stroke-miterlimit:4;stroke-dasharray:none;stroke-opacity:1"
       transform="rotate(90,434.38482,372.49017)">
      <g
         id="g8385-2" />
    </g>
    <g
       id="g3537-0"
       style="fill:none;fill-opacity:1;stroke:#323232;stroke-width:2;stroke-miterlimit:4;stroke-dasharray:none;stroke-opacity:1"
       transform="matrix(0,-1,-1,0,1033.1238,224.21677)" />
    <g
       id="g3541-2"
       style="fill:none;fill-opacity:1;stroke:#323232;stroke-width:2;stroke-miterlimit:4;stroke-dasharray:none;stroke-opacity:1"
       transform="matrix(0,-1,-1,0,1033.1238,224.21677)">
      <g
         id="g8417-3" />
    </g>
    <g
       id="g3545-7"
       style="fill:none;fill-opacity:1;stroke:#323232;stroke-width:2;stroke-miterlimit:4;stroke-dasharray:none;stroke-opacity:1"
       transform="matrix(0,-1,-1,0,1033.1238,224.21677)" />
    <g
       id="g3549-5"
       style="fill:none;fill-opacity:1;stroke:#323232;stroke-width:2;stroke-miterlimit:4;stroke-dasharray:none;stroke-opacity:1"
       transform="matrix(0,-1,-1,0,1033.1238,224.21677)" />
    <g
       id="g3931-9"
       transform="matrix(-1,0,0,0.3306468,183.40485,24.31649)" />
    <g
       id="g3935-2"
       transform="matrix(-1,0,0,0.323439,183.212,29.00904)" />
    <g
       id="g3939-2"
       transform="matrix(-1,0,0,0.8366758,183.40485,-63.459861)">
      <g
         id="g8233-8" />
    </g>
    <g
       id="g3943-9"
       transform="matrix(-1,0,0,0.9005921,183.40485,-75.207311)">
      <g
         id="g8241-7" />
    </g>
    <g
       id="g3955-3"
       transform="matrix(-1,0,0,0.3306468,183.47978,8.2806698)">
      <g
         id="g8249-6" />
    </g>
    <g
       id="g4041-1"
       transform="matrix(0,-1,-1,0,900.73256,67.935021)">
      <g
         id="g8425-2">
        <g
           id="g8433-9" />
      </g>
      <g
         id="g8409-3">
        <g
           id="g8441-1" />
      </g>
    </g>
    <g
       id="g4047-9"
       transform="matrix(1.2469397,0,0,1,771.27784,15.907072)">
      <g
         id="g8449-4" />
      <g
         id="g8457-7" />
    </g>
    <g
       id="g4053-8"
       transform="matrix(0,-1,1.1801999,0,-144.36442,152.15269)">
      <g
         id="g8297-4">
        <g
           id="g8321-5" />
      </g>
      <g
         id="g8313-0">
        <g
           id="g8329-3" />
      </g>
    </g>
    <g
       id="g3368-6"
       transform="translate(13.272739,97.09091)" />
    <g
       id="g3376-1"
       transform="translate(13.272739,97.09091)" />
    <g
       transform="translate(38.909099,3.2727318)"
       id="g7053-0">
      <g
         transform="matrix(1,0,0,0.9005921,32.4654,-85.819933)"
         id="g4023-6">
        <g
           id="g8140-3" />
      </g>
      <g
         id="g8183-2" />
    </g>
    <g
       id="g8191-9"
       style="fill:none;fill-opacity:1"
       transform="matrix(-1,0,0,1,348.16839,1.0909148)" />
  </g>
</svg>
